^C:\USERS\NATE\DOCUMENTS\VISUAL STUDIO 2019\PROJECTS\PEAVEY_NATE_ARTIFACT1REFINED\MAZEGAME\MAZE.CPP|C:\USERS\NATE\DOCUMENTS\VISUAL STUDIO 2019\PROJECTS\PEAVEY_NATE_ARTIFACT1REFINED\MAZEGAME\MAZEGAME.CPP
C:\USERS\NATE\DOCUMENTS\VISUAL STUDIO 2019\PROJECTS\PEAVEY_NATE_ARTIFACT1REFINED\MAZEGAME\DEBUG\VC142.PDB
C:\USERS\NATE\DOCUMENTS\VISUAL STUDIO 2019\PROJECTS\PEAVEY_NATE_ARTIFACT1REFINED\MAZEGAME\DEBUG\VC142.IDB
C:\USERS\NATE\DOCUMENTS\VISUAL STUDIO 2019\PROJECTS\PEAVEY_NATE_ARTIFACT1REFINED\MAZEGAME\DEBUG\MAZEGAME.OBJ
C:\USERS\NATE\DOCUMENTS\VISUAL STUDIO 2019\PROJECTS\PEAVEY_NATE_ARTIFACT1REFINED\MAZEGAME\DEBUG\MAZE.OBJ
^C:\USERS\NATE\DOCUMENTS\VISUAL STUDIO 2019\PROJECTS\PEAVEY_NATE_ARTIFACT1REFINED\MAZEGAME\MAZE.CPP
C:\USERS\NATE\DOCUMENTS\VISUAL STUDIO 2019\PROJECTS\PEAVEY_NATE_ARTIFACT1REFINED\MAZEGAME\DEBUG\VC142.PDB
^C:\USERS\NATE\DOCUMENTS\VISUAL STUDIO 2019\PROJECTS\PEAVEY_NATE_ARTIFACT1REFINED\MAZEGAME\MAZEGAME.CPP
C:\USERS\NATE\DOCUMENTS\VISUAL STUDIO 2019\PROJECTS\PEAVEY_NATE_ARTIFACT1REFINED\MAZEGAME\DEBUG\VC142.PDB
