^C:\USERS\NATE\DOCUMENTS\VISUAL STUDIO 2015\PROJECTS\PEAVEY_10\PEAVEY_10\DEBUG\CLASSY_MAZE_GAME.OBJ|C:\USERS\NATE\DOCUMENTS\VISUAL STUDIO 2015\PROJECTS\PEAVEY_10\PEAVEY_10\DEBUG\MAP.OBJ|C:\USERS\NATE\DOCUMENTS\VISUAL STUDIO 2015\PROJECTS\PEAVEY_10\PEAVEY_10\DEBUG\MAZE.OBJ
/OUT:"C:\USERS\NATE\DOCUMENTS\VISUAL STUDIO 2015\PROJECTS\PEAVEY_10\DEBUG\PEAVEY_10.EXE" /INCREMENTAL /NOLOGO KERNEL32.LIB USER32.LIB GDI32.LIB WINSPOOL.LIB COMDLG32.LIB ADVAPI32.LIB SHELL32.LIB OLE32.LIB OLEAUT32.LIB UUID.LIB ODBC32.LIB ODBCCP32.LIB /MANIFEST /MANIFESTUAC:"level='asInvoker' uiAccess='false'" /manifest:embed /DEBUG:FASTLINK /PDB:"C:\USERS\NATE\DOCUMENTS\VISUAL STUDIO 2015\PROJECTS\PEAVEY_10\DEBUG\PEAVEY_10.PDB" /SUBSYSTEM:CONSOLE /TLBID:1 /DYNAMICBASE /NXCOMPAT /IMPLIB:"C:\USERS\NATE\DOCUMENTS\VISUAL STUDIO 2015\PROJECTS\PEAVEY_10\DEBUG\PEAVEY_10.LIB" /MACHINE:X86 DEBUG\CLASSY_MAZE_GAME.OBJ
DEBUG\MAP.OBJ
DEBUG\MAZE.OBJ
